[
  {
    "description": "As a user, I want to test the login page, So that I can see the COL login page",
    "elements": [
      {
        "description": "",
        "id": "validate-the-login-page;user-should-login-col-admin-dashboard-using-valid-credentials",
        "keyword": "Scenario",
        "line": 4,
        "name": "User should login COL admin dashboard using valid credentials",
        "steps": [
          {
            "arguments": [],
            "keyword": "Given ",
            "line": 5,
            "name": "the user is on the COL admin login page",
            "match": {
              "location": "features\\step_definition\\step_login.js:8"
            },
            "result": {
              "status": "passed",
              "duration": 2475000000
            }
          },
          {
            "arguments": [],
            "keyword": "When ",
            "line": 6,
            "name": "they enter valid username and password",
            "match": {
              "location": "features\\step_definition\\step_login.js:12"
            },
            "result": {
              "status": "passed",
              "duration": 216000000
            }
          },
          {
            "arguments": [],
            "keyword": "And ",
            "line": 7,
            "name": "clicks on login button",
            "match": {
              "location": "features\\step_definition\\step_login.js:16"
            },
            "result": {
              "status": "passed",
              "duration": 47000000
            }
          },
          {
            "arguments": [],
            "keyword": "Then ",
            "line": 8,
            "name": "they will be able to login into COL admin page",
            "match": {
              "location": "features\\step_definition\\step_login.js:21"
            },
            "result": {
              "status": "failed",
              "duration": 4081000000,
              "error_message": "AssertionError [ERR_ASSERTION]: Expected values to be strictly equal:\n\u001b[32m+ actual\u001b[39m \u001b[31m- expected\u001b[39m\n\n\u001b[32m+\u001b[39m '32 Courses'\n\u001b[31m-\u001b[39m '33 Courses'\n    + expected - actual\n\n    -32 Courses\n    +33 Courses\n\n    at Object.checkmodulename (C:\\Users\\cryst\\OneDrive\\Documents\\COL Test Auto 1\\features\\page_action\\login.js:40:12)\n    at process.processTicksAndRejections (node:internal/process/task_queues:95:5)\n    at async World.<anonymous> (C:\\Users\\cryst\\OneDrive\\Documents\\COL Test Auto 1\\features\\step_definition\\step_login.js:23:5)"
            }
          }
        ],
        "tags": [
          {
            "name": "@test1",
            "line": 3
          }
        ],
        "type": "scenario"
      },
      {
        "description": "",
        "id": "validate-the-login-page;user-should-be-able-to-click-add-new-course-button",
        "keyword": "Scenario",
        "line": 11,
        "name": "User should be able to click Add new course button",
        "steps": [
          {
            "arguments": [],
            "keyword": "Given ",
            "line": 12,
            "name": "the user is on the admin page",
            "match": {
              "location": "features\\step_definition\\step_login.js:28"
            },
            "result": {
              "status": "passed",
              "duration": 0
            }
          },
          {
            "arguments": [],
            "keyword": "When ",
            "line": 13,
            "name": "the user clicks add new course button",
            "match": {
              "location": "features\\step_definition\\step_login.js:32"
            },
            "result": {
              "status": "passed",
              "duration": 2161000000
            }
          },
          {
            "arguments": [],
            "keyword": "Then ",
            "line": 14,
            "name": "the user should be able to view Add new course page",
            "match": {
              "location": "features\\step_definition\\step_login.js:36"
            },
            "result": {
              "status": "passed",
              "duration": 1000000
            }
          }
        ],
        "tags": [
          {
            "name": "@test1",
            "line": 10
          }
        ],
        "type": "scenario"
      },
      {
        "description": "",
        "id": "validate-the-login-page;user-does-not-enter-the-mandatory-fields-in-the-add-new-course-page",
        "keyword": "Scenario",
        "line": 17,
        "name": "User does not enter the mandatory fields in the add new course page",
        "steps": [
          {
            "arguments": [],
            "keyword": "Given ",
            "line": 18,
            "name": "the user is on add new course page",
            "match": {
              "location": "features\\step_definition\\step_login.js:42"
            },
            "result": {
              "status": "passed",
              "duration": 0
            }
          },
          {
            "arguments": [],
            "keyword": "When ",
            "line": 19,
            "name": "the user does not enter the mandatory fields",
            "match": {
              "location": "features\\step_definition\\step_login.js:46"
            },
            "result": {
              "status": "failed",
              "duration": 2049000000,
              "error_message": "TypeError: addCoursebutton.click is not a function\n    at Object.mandatory (C:\\Users\\cryst\\OneDrive\\Documents\\COL Test Auto 1\\features\\page_action\\login.js:66:26)\n    at async World.<anonymous> (C:\\Users\\cryst\\OneDrive\\Documents\\COL Test Auto 1\\features\\step_definition\\step_login.js:47:7)"
            }
          },
          {
            "arguments": [],
            "keyword": "And ",
            "line": 20,
            "name": "the user clicks on the add course button",
            "match": {
              "location": "features\\step_definition\\step_login.js:50"
            },
            "result": {
              "status": "skipped",
              "duration": 0
            }
          },
          {
            "arguments": [],
            "keyword": "Then ",
            "line": 21,
            "name": "the user should be able to view the error message",
            "match": {
              "location": "features\\step_definition\\step_login.js:54"
            },
            "result": {
              "status": "skipped",
              "duration": 0
            }
          }
        ],
        "tags": [
          {
            "name": "@test1",
            "line": 16
          }
        ],
        "type": "scenario"
      }
    ],
    "id": "validate-the-login-page",
    "line": 1,
    "keyword": "Feature",
    "name": "Validate the login page",
    "tags": [],
    "uri": "features\\login.feature"
  }
]